{
  "storage-conf": {
    "cloud-service": {
      "name": "drive",
      "credentials": "drive_credentials.json"
    }
  },
  "save-conf": {
    "upload-dir": "output",
    "ignore-exts": ["ignore"],
    "only-exts": ["txt"],
    "no-upload": "false"
  }
}
